<?xml version="1.0"?>
<!--
  The complete turtlebot library of xacros for easy reference
 -->
<robot xmlns:xacro="http://ros.org/wiki/xacro">
  <!-- General -->
  <xacro:include filename="$(find turtlebot_description)/urdf/common_properties.urdf.xacro"/>
  <xacro:include filename="$(find turtlebot_description)/urdf/turtlebot_properties.urdf.xacro"/>
  <!-- Bases -->
  <xacro:include filename="$(find create_description)/urdf/create.urdf.xacro"/>
  <xacro:include filename="$(find kobuki_description)/urdf/kobuki.urdf.xacro" />
  <!-- Stacks -->
  <xacro:include filename="$(find turtlebot_description)/urdf/stacks/circles.urdf.xacro"/>
  <xacro:include filename="$(find turtlebot_description)/urdf/stacks/hexagons.urdf.xacro"/>
  <!-- 3D Sensors -->
  <!--<xacro:include filename="$(find turtlebot_description)/urdf/sensors/kinect.urdf.xacro"/>-->
  <!--<xacro:include filename="$(find turtlebot_description)/urdf/sensors/asus_xtion_pro.urdf.xacro"/>-->
  <!--<xacro:include filename="$(find turtlebot_description)/urdf/sensors/hokuyo.urdf.xacro"/>-->


  <!-- LASER -->
  <link name="base_laser_link">
      <collision>
        <origin xyz="0 0 0" rpy="0 0 0"/>
        <geometry>
          <box size="0.1 0.1 0.1"/>
        </geometry>
      </collision>
      <visual>
        <origin xyz="0 0 0" rpy="0 0 0"/>
        <geometry>
          <mesh filename="package://turtlebot_description/meshes/sensors/hokuyo.dae"/>
        </geometry>
      </visual>
      <inertial>
        <mass value="1e-5" />
        <origin xyz="0 0 0" rpy="0 0 0"/>
        <inertia ixx="1e-6" ixy="0" ixz="0" iyy="1e-6" iyz="0" izz="1e-6" />
      </inertial>
  </link>
  <joint name="laser" type="fixed">
    <axis xyz="0 0 1" />
    <origin xyz="0.142 0 0.1766" rpy="0 0 0"/>
    <parent link="base_link"/>
    <child link="base_laser_link"/>
  </joint>
</robot>
